Homework 3
…
 Challenge 1

 Part 1

 Setting up

library(tidyverse)
library(broom)
library(infer)
library(boot)

d0 <- read_csv("https://raw.githubusercontent.com/difiore/ADA-datasets/master/KamilarAndCooperData.csv")
d0

## # A tibble: 213 x 44
##    Scientific_Name Family Genus Species Brain_Size_Spec~ Brain_Size_Fema~
##    <chr>           <chr>  <chr> <chr>              <dbl>            <dbl>
##  1 Allenopithecus~ Cerco~ Alle~ nigrov~             58.0             53.7
##  2 Allocebus_tric~ Cerco~ Allo~ tricho~             NA               NA  
##  3 Alouatta_belze~ Ateli~ Alou~ belzeb~             52.8             51.2
##  4 Alouatta_caraya Ateli~ Alou~ caraya              52.6             47.8
##  5 Alouatta_guari~ Ateli~ Alou~ guariba             51.7             49.1
##  6 Alouatta_palli~ Ateli~ Alou~ pallia~             49.9             48.0
##  7 Alouatta_pigra  Ateli~ Alou~ pigra               51.1             48.8
##  8 Alouatta_senic~ Ateli~ Alou~ senicu~             55.2             54.3
##  9 Aotus_azarai    Cebid~ Aotus azarai              20.7             20.7
## 10 Aotus_brumbacki Cebid~ Aotus brumba~             NA               NA  
## # ... with 203 more rows, and 38 more variables: Brain_size_Ref <chr>,
## #   Body_mass_male_mean <dbl>, Body_mass_female_mean <dbl>,
## #   Mass_Dimorphism <dbl>, Mass_Ref <chr>, MeanGroupSize <dbl>,
## #   AdultMales <dbl>, AdultFemale <dbl>, AdultSexRatio <dbl>,
## #   Social_Organization_Ref <chr>, InterbirthInterval_d <dbl>, Gestation <dbl>,
## #   WeaningAge_d <dbl>, MaxLongevity_m <dbl>, LitterSz <dbl>,
## #   Life_History_Ref <chr>, GR_MidRangeLat_dd <dbl>, Precip_Mean_mm <dbl>,
## #   Temp_Mean_degC <dbl>, AET_Mean_mm <dbl>, PET_Mean_mm <dbl>,
## #   Climate_Ref <chr>, HomeRange_km2 <dbl>, HomeRangeRef <chr>,
…
modfitCI <- predict(mod, interval = "conf", level = 0.90)
modfitPI <- predict(mod, interval = "predict", level = 0.90)

d2 <- mutate(d2, modCIlwr = modfitCI[, "lwr"], modCIupr = modfitCI[, "upr"])
d2 <- mutate(d2, modPIlwr = modfitPI[, "lwr"], modPIupr = modfitPI[, "upr"])

logmodfitCI <- predict(logmod, interval = "conf", level = 0.90)
logmodfitPI <- predict(logmod, interval = "predict", level = 0.90)

d2 <- mutate(d2, logmodCIlwr = logmodfitCI[, "lwr"], logmodCIupr = logmodfitCI[, "upr"])
d2 <- mutate(d2, logmodPIlwr = logmodfitPI[, "lwr"], logmodPIupr = logmodfitPI[, "upr"])

d2

## # A tibble: 128 x 11
##    Scientific_Name Brain_Size_Spec~ MaxLongevity_m modCIlwr modCIupr modPIlwr
##    <chr>                      <dbl>          <dbl>    <dbl>    <dbl>    <dbl>
##  1 Allenopithecus~            58.0            276      306.     333.     168.
##  2 Alouatta_caraya            52.6            244.     299.     327.     162.
##  3 Alouatta_palli~            49.9            300      296.     324.     158.
##  4 Alouatta_pigra             51.1            240      297.     325.     160.
##  5 Alouatta_senic~            55.2            300      303.     330.     165.
##  6 Aotus_azarai               20.7            360      258.     290.     123.
##  7 Aotus_lemurinus            16.3            406.     252.     285.     117.
##  8 Aotus_trivirga~            16.8            304.     253.     286.     118.
##  9 Arctocebus_cal~             6.92           156      240.     275.     106.
## 10 Ateles_belzebu~           117.             336      376.     407.     240.
## # ... with 118 more rows, and 5 more variables: modPIupr <dbl>,
## #   logmodCIlwr <dbl>, logmodCIupr <dbl>, logmodPIlwr <dbl>, logmodPIupr <dbl>
…
